STAT 253: Statistical Machine Learning - 21 Unsupervised Learning Review
…
You can find a codebook and additional details about the data here. Take a few minutes to read this documentation and explore the dataset in R before you move on.

This is a big dataset. Let’s focus on ONE artist who has at least 25 songs in the dataset:

# Check out artists with at least 25 songs
music %>% 
  count(performer) %>% 
  filter(n >= 25) %>% 
  select(performer)

# A tibble: 101 × 1
   performer       
   <chr>           
 1 Aerosmith       
 2 Andy Williams   
 3 Anne Murray     
 4 Aretha Franklin 
 5 Ariana Grande   
 6 B.B. King       
 7 Barbra Streisand
 8 Barry Manilow   
 9 Bee Gees        
10 Beyonce         
# ℹ 91 more rows
…
